<svg width="8" height="13" viewBox="0 0 8 13" version="1.1" xmlns="http://www.w3.org/2000/svg" xmlns:xlink="http://www.w3.org/1999/xlink">
<title>arrow</title>
<desc>Created using Figma</desc>
<g id="Canvas" transform="translate(-1004 -4816)">
<g id="arrow">
<g id="Group">
<g id="Group">
<g id="Vector">
<use xlink:href="#path0_fill" transform="matrix(6.12323e-17 1 -1 6.12323e-17 1011.47 4816)" fill="#333333"/>
</g>
</g>
</g>
</g>
</g>
<defs>
<path id="path0_fill" fill-rule="evenodd" d="M 11.3474 7.18454C 11.7254 7.5626 12.3384 7.5626 12.7165 7.18454C 13.0945 6.80648 13.0945 6.19352 12.7165 5.81546L 7.18454 0.283546C 6.80648 -0.0945149 6.19352 -0.0945149 5.81546 0.283546L 0.283545 5.81546C -0.0945154 6.19352 -0.0945154 6.80648 0.283545 7.18454C 0.661606 7.5626 1.27456 7.5626 1.65262 7.18454L 6.50265 2.33452L 11.3474 7.18454Z"/>
</defs>
</svg>
