<svg width="10" height="10" viewBox="0 0 10 10" version="1.1" xmlns="http://www.w3.org/2000/svg" xmlns:xlink="http://www.w3.org/1999/xlink">
<title>ico-oval-red</title>
<desc>Created using Figma</desc>
<g id="Canvas" transform="translate(4676 -4947)">
<g id="ico-oval-red">
<use xlink:href="#path0_fill" transform="translate(-4676 4947)" fill="#D0021B"/>
</g>
</g>
<defs>
<path id="path0_fill" fill-rule="evenodd" d="M 5 10C 7.76142 10 10 7.76142 10 5C 10 2.23858 7.76142 0 5 0C 2.23858 0 0 2.23858 0 5C 0 7.76142 2.23858 10 5 10Z"/>
</defs>
</svg>
